{
  "0":"成功",
  "1001":"密碼錯誤",
  "1002":"參數錯誤",
  "1003":"數據庫執行錯誤",
  "1004":"數據庫IO錯誤",
  "1005":"局號重覆",
  "1006":"已過下注時間",
  "1007":"局號過期",
  "1008":"牌值不對",
  "1009":"遊戲狀態不對",
  "1010":"版本不對",
  "1011":"餘額不足",
  "1012":"超過桌台限紅",
  "1013":"超過個人限紅",
  "1014":"不足桌台限紅",
  "1015":"不足個人限紅",
  "1016":"牌索引不對"
}